Analyse Basic Structure of Sentences for Better Writing • anabass
…
df <-
  review_sentences |>
  list2df() |>
  add_x_pos() |>
  add_index()

for(i in seq_along(review_sentences)){
  con <- connect_with(review_sentences, i)
  diff <- compute_diff_x(df, con)
  df <- update_x_pos(df, diff)
}
print(df)
#> # A tibble: 426 × 5
#>    sentence word         x_start x_end index
#>       <int> <chr>          <dbl> <dbl> <int>
#>  1        1 草原            184   188.     1
#>  2        1 おく            188.  192.     2
#>  3        1 単位            192.  196.     3
#>  4        1 面積            196.  200.     4
#>  5        1 世界            200.  204.     5
#>  6        1 最高            204.  209.     6
#>  7        1 植物            209.  213.     7
#>  8        1 種数            213.  217.     8
#>  9        1 チェコ          217.  223.     9
#> 10        1 アルゼンチン    223.  234     10
#> # ℹ 416 more rows
…
